\relax 
\@writefile{toc}{\contentsline {section}{\numberline {1}Probability and Statistics 1}{2}}
\@writefile{toc}{\contentsline {subsection}{\numberline {1.1}What are the median and mean of a set $\{15,8,3,7,12\}$, respectively?}{2}}
\@writefile{toc}{\contentsline {subsection}{\numberline {1.2}Assume $X$ is a random variable with the variance of $Var[X]$. What would be the variance of $aX+b+c$ where $a,b,c$ are scalar constants?}{2}}
\@writefile{toc}{\contentsline {subsection}{\numberline {1.3}Let $Y_1,\tmspace  +\thinmuskip {.1667em}Y_2,\dots  ,Y_n$ be a set of samples drawn independently and identically from a distribution $P(Y)$ over a one dimensional random variable $Y \in \mathbb  {R}$. What is the formula to estimate the variance?}{2}}
\@writefile{toc}{\contentsline {subsection}{\numberline {1.4}Suppose that given random variable X, random variables Y and Z are conditionally independent. Which one of the following is true?}{2}}
\@writefile{toc}{\contentsline {subsection}{\numberline {1.5}Assume that the cumulative distribution function (C.D.F.) of a random variable is given as follows. Write down the expression for the probability density function (p.d.f.) of $X$.}{2}}
\@writefile{toc}{\contentsline {subsection}{\numberline {1.6}One box has several different colored balls inside of it. It has 1 red, 2 green, 4 blue, and 8 yellow balls. All the balls are the same size and shape. If you take out a ball from the box without looking, what is the probability that it will NOT be a yellow ball.}{2}}
\@writefile{toc}{\contentsline {subsection}{\numberline {1.7}Which of the following statements is true? (Notation $A\cup B$ means ``either event A or B happens''; notation $A\cap B$ means ``both event A and B happened simultaneously'').}{2}}
\@writefile{toc}{\contentsline {subsection}{\numberline {1.8}Suppose we throw two dice (each with 6 sides) simultaneously. Assuming the two dices are independent and each side comes up with equal probability. What is the probability of getting sum as 8 of the two numbers shown?}{3}}
\@writefile{toc}{\contentsline {subsection}{\numberline {1.9}Suppose that $f(x)$ is the probability density function (p.d.f.) of random variable $X$. Then, is $f(x|b<x\leq a)=\frac  {f(x)}{F(a)-F(b)}$ for any $b<x\leq a$ True or False?}{3}}
\@writefile{toc}{\contentsline {subsection}{\numberline {1.10}Assume that we have $m$ coins. We toss each one of them $n$ times. The probability of heads showing up for each coin is $p$. What's the probability of getting $n$ heads for some coin? Your answer should be in terms of $m$, $n$ and $p$.}{3}}
\@writefile{toc}{\contentsline {section}{\numberline {2}Probability and Statistics 2}{3}}
\@writefile{toc}{\contentsline {subsection}{\numberline {2.1}Suppose that there are two events $A$ and $B$, and furthermore one event is included in another event: $A \subseteq B$ such that $P(A)>0$ and $P(B)>0$. How many of the following statements are true: (1) $P(B|A)=1$, (2) $P(A|B)=P(A)/P(B)$?}{3}}
\@writefile{toc}{\contentsline {subsection}{\numberline {2.2}Let $Y_1,\tmspace  +\thinmuskip {.1667em}Y_2,\dots  ,Y_n$ be a set of random sample of size $n$ drawn independently and identically from a normal distribution with mean $\mu $ and variance $\sigma ^2$. Then let $\overline  {Y}=\frac  {1}{n}\DOTSB \sum@ \slimits@ _{i=1}^{n} Y_i$. How many of the following statements are true: (1) $\overline  {Y}$ is normally distributed, (2) mean $\mu _{\overline  {Y}}=\mu /n$, and (3) variance $\sigma ^2_{\overline  {Y}}=\sigma ^2/n$.}{3}}
\@writefile{toc}{\contentsline {subsection}{\numberline {2.3}Is the following statement TRUE or FALSE: If we perform the same experiment a large number of times and the results are independent and identically distributed, then the average of the results obtained from a large number of trials should be close to the expected value, and will tend to become closer as more trials are performed.}{4}}
\@writefile{toc}{\contentsline {subsection}{\numberline {2.4}Suppose random variables $Y,x$ and $\epsilon $ are related by $Y=\beta _0+\beta _1x+\epsilon $, with $\beta _0$ and $\beta _1$ are parameters and $\epsilon $ is assumed to follow normal distribution with mean 0 and constant variance. Please calculate: (1) $E(\epsilon |x)$, and (2) $E(Y|x)$.}{4}}
\@writefile{toc}{\contentsline {subsection}{\numberline {2.5}Is the following statement TRUE or FALSE: $p\left (X=x|Y=y\right )=\frac  {p(X=x)p(Y=y|X=x)}{\DOTSB \sum@ \slimits@ _x'p(X=x')p(Y=y|X=x')}$}{4}}
\@writefile{toc}{\contentsline {subsection}{\numberline {2.6}The population correlation coefficient $\rho _{X,Y}$ between two random variables $X$ and $Y$ with expected values $\mu _X$ and $\mu _Y$ and standard deviations $\sigma _X$ and $\sigma _Y$ is defined as: $\rho _{X,Y}=\mathrm  {corr}(X,Y)={\mathrm  {cov}(X,Y) \over \sigma _X \sigma _Y} ={E[(X-\mu _X)(Y-\mu _Y)] \over \sigma _X\sigma _Y}$. How many of the following statements are true: (1) $\rho _{X,Y}=0 \Rightarrow X, Y $ independent, (2) $\mathrm  {corr}(X,Y)\not =\mathrm  {corr}(Y,X)$ }{4}}
\@writefile{toc}{\contentsline {subsection}{\numberline {2.7}Is the following statement TRUE or FALSE: If $X$ and $Y$ are \textit  {any} two random variables and $a$ and $b$ are \textit  {any} two constants, then $Var(aX+bY)=a^2Var(X)+b^2Var(Y)$?}{4}}
\@writefile{toc}{\contentsline {subsection}{\numberline {2.8}Suppose $Y_1$ and $Y_2$ are any two random variables, the \textit  {conditional expectation} of $g(Y_1)$, given that $Y_2=y_2$, is defined to be: (1) $E\left (g(Y_1)|Y_2=y_2\right )=\DOTSI \intop \ilimits@ _{-\infty } ^{+\infty } g(y_1)f(y_1|y_2)\tmspace  +\thinmuskip {.1667em}dy_1 $, or (2) $E\left (g(Y_1)|Y_2=y_2\right )=\DOTSI \intop \ilimits@ _{-\infty } ^{+\infty } g(y_1)f(y_1|y_2)\tmspace  +\thinmuskip {.1667em}dy_2 $ }{4}}
\@writefile{toc}{\contentsline {subsection}{\numberline {2.9}Suppose $F(y)$ is a cumulative distribution function over real domain, then how many of the following statements are TRUE: (1) $F(-\infty )=0$, (2) $F(+\infty )=0$, and (3) If $y_1$ and $y_2$ are any values such that $y_1 < y_2$, then $F(y_1)\leq F(y_2)$ ?}{4}}
\@writefile{toc}{\contentsline {subsection}{\numberline {2.10}Suppose $X \sim Normal\tmspace  +\thinmuskip {.1667em}(5,3^2)$. What is $P\tmspace  +\thinmuskip {.1667em}(X \leq 8)$ in terms of the standard normal variable $Z$? (Or $P(X\leq 8)$ is equal to?)}{4}}
\@writefile{toc}{\contentsline {section}{\numberline {3}Linear Algebra}{5}}
\@writefile{toc}{\contentsline {subsection}{\numberline {3.1}We have two matrices $A \in \mathbb  {R}^{m\times n}$ and $B\in \mathbb  {R}^{n\times d}$. Let $A_{ij}$ be the entry of $A$ in the $i$-th row and $j$-th column, and similar notation applies for $B_{ij}$. Let the multiplication of $A$ and $B$ be $C = A B$, what is the dimensions of matrix $C$ and how do you compute entry $C_{ij}$?}{5}}
\@writefile{toc}{\contentsline {subsection}{\numberline {3.2}If we have $a + 2b - 3c = 0$, where $a,b,c \in \mathbb  {R}^n$ are vectors, then these vectors are linearly independent. True or False?}{5}}
\@writefile{toc}{\contentsline {subsection}{\numberline {3.3}The solution for the linear system $Ax = b$, where $A \in \mathbb  {R}^{m \times n}$ and $m\not =n$, $x \in \mathbb  {R}^{n}$, and $b \in \mathbb  {R}^{m}$ is $x = A^{-1}b$. True or False?}{5}}
\@writefile{toc}{\contentsline {subsection}{\numberline {3.4}If $x$ is in the null space of $A$, then}{5}}
\@writefile{toc}{\contentsline {subsection}{\numberline {3.5}If $Q$ is an orthonormal matrix, which of the following statements are correct? Choose all that apply}{5}}
\@writefile{toc}{\contentsline {subsection}{\numberline {3.6}The squared Frobenius norm $\delimiter "026B30D X\delimiter "026B30D ^2_F$ can also be expressed as}{5}}
\@writefile{toc}{\contentsline {subsection}{\numberline {3.7}What is the rank and trace of the matrix $A$}{5}}
\newlabel{item:a}{{3.7}{5}}
\@writefile{toc}{\contentsline {subsection}{\numberline {3.8}Which vectors are in the column space of the matrix $A$ in Question\nobreakspace  {}3.7\hbox {}? Choose all that apply.}{5}}
\@writefile{toc}{\contentsline {subsection}{\numberline {3.9}Suppose $A \in \mathbb  {R}^{n \times n}$ is a symmetric matrix, and it has $n$ eigenvalues $\lambda _1,\lambda _2,\ldots  ,\lambda _n \in \mathbb  {R}$ and the corresponding $n$ orthonormal eigenvectors $v_1,v_2,\ldots  ,v_n \in \mathbb  {R}$, which one of the following is true? (choose one)}{5}}
\@writefile{toc}{\contentsline {subsection}{\numberline {3.10}Let $f(x) = a^\top x$, where $x \in \mathbb  {R}^n$ and $a \in \mathbb  {R}^{n}$. Write the gradient of $f(x)$ with respect to $x$, i.e., $\nabla f(x)$.}{6}}
\@writefile{toc}{\contentsline {section}{\numberline {4}Matlab: answer with Matlab commands.}{6}}
\@writefile{toc}{\contentsline {subsection}{\numberline {4.1}Create a vector of all the even numbers between 31 and 75.}{6}}
\@writefile{toc}{\contentsline {subsection}{\numberline {4.2}Let $x$ = [2 5 1 6]. Compute the square root of each element, and assign the result to $a$.}{6}}
\@writefile{toc}{\contentsline {subsection}{\numberline {4.3}Let $x$ = [3 2 6 8]$'$ and $y$ = [4 1 3 5]$'$. Answer in Matlab commands. Raise each element of $x$ to the power specified by the corresponding element in $y$.}{6}}
\@writefile{toc}{\contentsline {subsection}{\numberline {4.4}Given the array $A$ = [2 4 1 ; 6 7 2 ; 3 5 9], assign the first row of $A$ to a vector called $a$.}{6}}
\@writefile{toc}{\contentsline {subsection}{\numberline {4.5}Given $x$ = [3 15 9 12 -1 0 -12 9 6 1], set the values of $x$ that are positive to zero.}{6}}
\@writefile{toc}{\contentsline {subsection}{\numberline {4.6}Given the following code, calculate the result of $w$:}{6}}
\@writefile{toc}{\contentsline {subsection}{\numberline {4.7}Given $A$ = [1 2 3; 4 5 6], $b$ = 7 and $C$=$A'$*$b$, what is the result of $C$?}{7}}
\@writefile{toc}{\contentsline {subsection}{\numberline {4.8}Given $A$ = [1 2 3; 4 5 6], $B$ = [9 8 7; 6 5 4] and $C$=$A$.*$B$, what is the result of $C$?}{7}}
\@writefile{toc}{\contentsline {subsection}{\numberline {4.9}Given $A$ = [3 6 2 5 9] and $B$ = [9 5 3 7 1], what is the vector returned by command $A<=B$?}{7}}
\@writefile{toc}{\contentsline {subsection}{\numberline {4.10}Given the vector $x$ = [1 8 3 9 0 1], add up the values of the elements of $x$, and assign the result to $a$.}{7}}
