\relax 
\@writefile{toc}{\contentsline {section}{\numberline {1}Probability and Statistics 1}{1}}
\@writefile{toc}{\contentsline {section}{\numberline {2}Probability and Statistics 2}{1}}
\@writefile{toc}{\contentsline {section}{\numberline {3}Linear Algebra}{2}}
\@writefile{toc}{\contentsline {section}{\numberline {4}Matlab}{2}}
