\relax 
\@writefile{toc}{\contentsline {section}{\numberline {1}Concepts}{1}}
\@writefile{toc}{\contentsline {subsection}{\numberline {1.1}Suppose you are working on weather prediction, and your weather station makes one of three predictions for each day's weather: Sunny, Cloudy or Rainy. You'd like to use a learning algorithm to predict tomorrow's weather. Would you treat this as a classification problem?}{1}}
\@writefile{toc}{\contentsline {subsection}{\numberline {1.2}Suppose you are working on stock market prediction, Typically tens of millions of shares of Microsoft stock are traded (i.e., bought/sold) each day. You would like to predict the number of Microsoft shares that will be traded tomorrow. Would you treat this as a classification problem?}{1}}
\@writefile{toc}{\contentsline {subsection}{\numberline {1.3}\textit  {Would you apply supervised learning to the following? In each case, assume some appropriate dataset is available for your algorithm to learn from.} }{2}}
\@writefile{toc}{\contentsline {subsection}{\numberline {1.4}Suppose someone tells you that they ran PCA in such a way that ``95\% of the variance was retained.'' What is an equivalent statement to this?}{2}}
\@writefile{toc}{\contentsline {subsection}{\numberline {1.5}Even if all the input features are on very similar scales, we should still perform mean normalization (so that each feature has zero mean) before running PCA. [2 pts]}{2}}
\@writefile{toc}{\contentsline {subsection}{\numberline {1.6}PCA can be used only to reduce the dimensionality of data by 1 (such as 3D to 2D, or 2D to 1D). [2 pts]}{2}}
\@writefile{toc}{\contentsline {subsection}{\numberline {1.7}If the input features are on very different scales, it is a good idea to perform feature scaling before applying PCA. [2 pts]}{3}}
\@writefile{toc}{\contentsline {subsection}{\numberline {1.8}\textit  {Do you recommend using PCA for the following?} }{3}}
\@writefile{toc}{\contentsline {subsection}{\numberline {1.9}In K-means clustering, once an example has been assigned to a particular centroid, it will never be reassigned to another different centroid.}{3}}
\@writefile{toc}{\contentsline {subsection}{\numberline {1.10}For some datasets, the ``right'' or ``correct'' value of K (the number of clusters) can be ambiguous, and hard even for a human expert looking carefully at the data to decide.}{3}}
\@writefile{toc}{\contentsline {subsection}{\numberline {1.11}On every iteration of K-means, the cost function $J(c^1,...,c^m,\mu ^1,...,\mu ^k)$ (the distortion function) should either stay the same or decrease; in particular, it should not increase.}{3}}
\@writefile{toc}{\contentsline {subsection}{\numberline {1.12}The standard way of initializing K-means is setting $\mu ^1=...=\mu ^k$ to be equal to a vector of zeros.}{3}}
\@writefile{toc}{\contentsline {subsection}{\numberline {1.13}Suppose you have an unlabeled dataset ${x^1,...,x^m}$. You run K-means with 50 different random initializations, and obtain 50 different clusterings of the data. What is the recommended way for choosing which one of these 50 clusterings to use?}{4}}
\@writefile{toc}{\contentsline {subsection}{\numberline {1.14}Suppose we have three cluster centroids $\mu ^1=[1; 2]$, $\mu ^2=[−3; 0]$ and $\mu ^3=[4; 2]$. Furthermore, we have a training example $x^i=[3; 1]$. After a cluster assignment step, what will $c^i$ be?}{4}}
\@writefile{toc}{\contentsline {section}{\numberline {2}Matlab}{4}}
\@writefile{toc}{\contentsline {subsection}{\numberline {2.1}Create a vector of all the even numbers between 31 and 75.}{4}}
\@writefile{toc}{\contentsline {subsection}{\numberline {2.2}Let $x$ = [2 5 1 6]. Answer in Matlab commands.}{4}}
\@writefile{toc}{\contentsline {subsection}{\numberline {2.3}Let $x$ = [3 2 6 8]$'$ and $y$ = [4 1 3 5]$'$. Answer in Matlab commands.}{4}}
\@writefile{toc}{\contentsline {subsection}{\numberline {2.4}Given the array $A$ = [ 2 4 1 ; 6 7 2 ; 3 5 9], provide the command(s) needed to:}{5}}
\@writefile{toc}{\contentsline {subsection}{\numberline {2.5}Given $x$ = [3 15 9 12 -1 0 -12 9 6 1], provide the command(s) that will:}{5}}
\@writefile{toc}{\contentsline {subsection}{\numberline {2.6}Given the following code, calculate the result of $w$:}{5}}
\@writefile{toc}{\contentsline {subsection}{\numberline {2.7}Given $A$ = [1 2 3; 4 5 6], $B$ = [9 8; 7 6; 5 4] and $C$=$A$*$B$, what is the result of $C$?}{6}}
\@writefile{toc}{\contentsline {subsection}{\numberline {2.8}Given $A$ = [1 2 3; 4 5 6], $b$ = 7 and $C$=$A'$*$b$, what is the result of $C$?}{6}}
\@writefile{toc}{\contentsline {subsection}{\numberline {2.9}Given $A$ = [1 2 3; 4 5 6], $B$ = [9 8 7; 6 5 4] and $C$=$A$.*$B$, what is the result of $C$?}{6}}
\@writefile{toc}{\contentsline {subsection}{\numberline {2.10}Given $A$ = [3 6 2 5 9] and $B$ = [9 5 3 7 1], what is the vector returned by command $A<=B$?}{6}}
\@writefile{toc}{\contentsline {subsection}{\numberline {2.11}Given $A$ = [2 3 4] and $B$ = $A$.\^{}$A$, what is the result of $B$?}{7}}
\@writefile{toc}{\contentsline {subsection}{\numberline {2.12}Given the vector $x$ = [1 8 3 9 0 1], create a short set of command(s) that will add up the values of the elements of $x$, and assign the result to $a$.}{7}}
\@writefile{toc}{\contentsline {section}{\numberline {3}Calculations}{7}}
\@writefile{toc}{\contentsline {subsection}{\numberline {3.1}K-means [10 pts]}{7}}
\@writefile{toc}{\contentsline {subsection}{\numberline {3.2}Maximum Likelihood Parameter Estimation}{8}}
