\relax 
\@writefile{toc}{\contentsline {section}{\numberline {1}Concepts}{1}}
\@writefile{toc}{\contentsline {subsection}{\numberline {1.1}Assume that we have $m$ coins. We toss each one of them $n$ times. The probability of heads showing up for each coin is $p$. What's the probability of getting $n$ heads for some coin? Your answer should be in terms of $m$, $n$ and $p$. }{1}}
\@writefile{toc}{\contentsline {subsection}{\numberline {1.2}Write down the expression for multivariate normal (Gaussian) density.}{1}}
\@writefile{toc}{\contentsline {subsection}{\numberline {1.3}Assume X is a random variable with the variance of $Var[X]$. What would be the variance of $aX+b+c$ ?}{2}}
\@writefile{toc}{\contentsline {subsection}{\numberline {1.4}Suppose that given X, Y and Z are conditionally independent. Which one of the following is true?}{2}}
\@writefile{toc}{\contentsline {subsection}{\numberline {1.5}Assume that the C.D.F of X as a random variable is $F(x) =$ \{ \def \par }{2}}
\@writefile{toc}{\contentsline {subsection}{\numberline {1.6}Suppose that $f(x)$ is the p.d.f of random variable $X$. Then we have: \\* $f(x|b<x\leq a)=\frac  {f(x)}{F(a)-F(b)}$ for any $b<x\leq a$}{2}}
\@writefile{toc}{\contentsline {subsection}{\numberline {1.7}One box has several different colored balls inside of it. It has 1 red, 2 green, 4 blue, and 8 yellow balls. All the balls are the same size and shape. If you take out a ball from the box without looking, what is the probability that it will NOT be a yellow ball.}{2}}
\@writefile{toc}{\contentsline {subsection}{\numberline {1.8}What are the median and mean of the following set of numbers, respectively?$\{15,8,3,7,12\}$}{2}}
\@writefile{toc}{\contentsline {subsection}{\numberline {1.9}Which of the following statements is true?}{2}}
\@writefile{toc}{\contentsline {subsection}{\numberline {1.10}I throw two dice simultaneously. What is the probability of getting sum as 8 of the two numbers shown ? }{3}}
