\relax 
\@writefile{toc}{\contentsline {section}{\numberline {1}Information Theory}{1}}
\newlabel{eq:mixgauss2}{{3}{2}}
\@writefile{toc}{\contentsline {section}{\numberline {2}Density Estimation}{3}}
\@writefile{toc}{\contentsline {section}{\numberline {3}Programming: Text Clustering}{3}}
