\relax 
\providecommand\HyperFirstAtBeginDocument{\AtBeginDocument}
\HyperFirstAtBeginDocument{\ifx\hyper@anchor\@undefined
\global\let\oldcontentsline\contentsline
\gdef\contentsline#1#2#3#4{\oldcontentsline{#1}{#2}{#3}}
\global\let\oldnewlabel\newlabel
\gdef\newlabel#1#2{\newlabelxx{#1}#2}
\gdef\newlabelxx#1#2#3#4#5#6{\oldnewlabel{#1}{{#2}{#3}}}
\AtEndDocument{\ifx\hyper@anchor\@undefined
\let\contentsline\oldcontentsline
\let\newlabel\oldnewlabel
\fi}
\fi}
\global\let\hyper@last\relax 
\gdef\HyperFirstAtBeginDocument#1{#1}
\providecommand\HyField@AuxAddToFields[1]{}
\providecommand\HyField@AuxAddToCoFields[2]{}
\@writefile{toc}{\contentsline {section}{\textbf  {Education}}{1}{section*.1}}
\@writefile{toc}{\contentsline {section}{\textbf  {Research Interests}}{1}{section*.2}}
\@writefile{toc}{\contentsline {section}{\textbf  {Honors}}{1}{section*.3}}
\@writefile{toc}{\contentsline {section}{\textbf  {Paperworks}}{1}{section*.4}}
\@writefile{toc}{\contentsline {subsection}{Conference}{1}{section*.5}}
\@writefile{toc}{\contentsline {section}{\textbf  {Selected Courses \& Grades \newline  (Georgia Institute of Technology)}}{2}{section*.6}}
\@writefile{toc}{\contentsline {section}{\textbf  {Teaching Assistance}}{2}{section*.7}}
\@writefile{toc}{\contentsline {section}{\textbf  {Academic Projects}}{2}{section*.8}}
\@writefile{toc}{\contentsline {section}{\textbf  {Computer Skills}}{2}{section*.9}}
\@writefile{toc}{\contentsline {section}{\textbf  {Selected Courses \& Grades \newline  (Sharif University of Technology)}}{3}{section*.10}}
\@writefile{toc}{\contentsline {section}{\textbf  {Languages}}{3}{section*.11}}
\newlabel{lastpage}{{}{3}{}{section*.11}{}}
